{
  "compilerOptions": {
    "module": "ESNext",
    "target": "ESNext",
    "checkJs": true,
    "moduleResolution": "node",
    "resolveJsonModule": true
  },
  "include": ["create-node-module.js"]
}
